refdes	value	footprint	description	qty	assembly order
CONN1	Xmotor	molex_705530038	generic 4 pin connector	1	1
CONN2	X_End	molex_705530036	generic 2 pin connector	1	1
CONN3	Aux	molex_705530038	generic 4 pin connector	1	N/A
CONN4	26 Way Ribbon	EHF-113-01-XX-D	breakout device for gantry ribbon connection	1	3
CONN5	20 way Ribbon	EHF-110-01-XX-D	breakout device for gantry ribbon connection	1	3
CONN6	Carriage 6-way out	molex_microfit_436500615	breakout device for gantry pwr connection	1	2
CONN7	Etray 6way in	molex_microfit_436500615	breakout device for gantry pwr connection	1	3
