v 20140308 2
C 42750 43700 1 180 0 con_1x4.sym
{
T 42775 43400 5 10 0 1 180 0 1
refdes=CONN1
T 43300 40975 5 8 1 1 180 0 1
footprint=molex_705530038
T 42750 40700 5 8 0 0 180 0 1
symversion=1.0
T 42875 41300 5 14 1 1 180 0 1
value=Xmotor
}
N 41625 41700 42250 41700 4
{
T 41600 41675 5 10 1 1 180 6 1
netname=XM_2B
}
N 41625 42100 42250 42100 4
{
T 41600 42100 5 10 1 1 180 6 1
netname=XM_2A
}
N 41625 42500 42250 42500 4
{
T 41600 42500 5 10 1 1 180 6 1
netname=XM_1A
}
N 41625 42900 42250 42900 4
{
T 41600 42875 5 10 1 1 180 6 1
netname=XM_1B
}
C 52150 51125 1 180 0 con_1x2.sym
{
T 52075 49550 5 10 0 1 180 0 1
refdes=CONN2
T 52650 49350 5 8 1 1 180 0 1
footprint=molex_705530036
T 52150 48925 5 8 0 0 180 0 1
symversion=2.0
T 52250 49625 5 14 1 1 180 0 1
value=X_End
}
N 50900 50325 51650 50325 4
{
T 50900 50325 5 10 1 1 0 0 1
netname=x_endstop
}
N 50900 49925 51650 49925 4
{
T 51225 49925 5 10 1 1 0 0 1
netname=gnd
}
T 54525 40500 15 10 1 0 0 0 4
Gantry Breakout Board
connecting data signals
and switching power
from RAMPS/RUMBA/RAMBO
C 53700 47225 1 0 0 con_1x4.sym
{
T 53600 47575 5 10 0 1 0 0 1
refdes=CONN3
T 53550 47325 5 8 1 1 0 0 1
footprint=molex_705530038
T 53700 50225 5 8 0 0 0 0 1
symversion=1.0
T 53575 47500 5 14 1 1 0 0 1
value=AUX
}
N 54400 48025 54200 48025 4
{
T 54800 48150 5 10 1 1 180 0 1
netname=5v_vcc
}
N 54400 48425 54200 48425 4
{
T 54800 48575 5 10 1 1 180 0 1
netname=aux0-b
}
N 54400 48825 54200 48825 4
{
T 54800 48950 5 10 1 1 180 0 1
netname=aux0-a
}
N 54400 49225 54200 49225 4
{
T 54550 49375 5 10 1 1 180 0 1
netname=gnd
}
T 40300 49900 9 24 1 0 0 0 1
CONNECTORS OUT TO CARRIAGE
N 41650 49250 41350 49250 4
{
T 40600 49250 5 10 1 1 0 0 1
netname=E1M_2B
}
N 41650 49000 41350 49000 4
{
T 40600 49000 5 10 1 1 0 0 1
netname=E0M_1B
}
N 41650 48750 41350 48750 4
{
T 40600 48750 5 10 1 1 0 0 1
netname=E1M_1A
}
N 41650 48500 41350 48500 4
{
T 40600 48500 5 10 1 1 0 0 1
netname=E0M_2A
}
N 41650 48250 41350 48250 4
{
T 41125 48250 5 10 1 1 0 0 1
netname=gnd
}
N 41650 48000 41350 48000 4
{
T 40600 48000 5 10 1 1 0 0 1
netname=E0M_2B
}
N 41650 47750 41350 47750 4
{
T 40600 47750 5 10 1 1 0 0 1
netname=E1M_2A
}
N 41650 47500 41350 47500 4
{
T 40600 47500 5 10 1 1 0 0 1
netname=E0M_1A
}
N 44450 49250 44150 49250 4
{
T 44425 49250 5 10 1 1 0 0 1
netname=5v_vcc
}
N 44450 49000 44150 49000 4
{
T 44450 49000 5 10 1 1 0 0 1
netname=fan1
}
N 44450 48750 44150 48750 4
{
T 44425 48750 5 10 1 1 0 0 1
netname=aux0-b
}
N 44450 48500 44150 48500 4
{
T 44425 48500 5 10 1 1 0 0 1
netname=fan1_1
}
N 44450 48250 44150 48250 4
{
T 44425 48250 5 10 1 1 0 0 1
netname=gnd
}
N 44450 48000 44150 48000 4
{
T 44425 48000 5 10 1 1 0 0 1
netname=therm0
}
N 44450 47750 44150 47750 4
{
T 44450 47750 5 10 1 1 0 0 1
netname=therm1
}
N 44450 47500 44150 47500 4
{
T 44425 47500 5 10 1 1 0 0 1
netname=aux0-a
}
N 41650 47250 41350 47250 4
{
T 40600 47250 5 10 1 1 0 0 1
netname=E1M_1B
}
N 41650 47000 41350 47000 4
{
T 41150 47000 5 10 1 1 0 0 1
netname=gnd
}
N 44450 47250 44150 47250 4
{
T 44425 47250 5 10 1 1 0 0 1
netname=fan0_1
}
N 44450 47000 44150 47000 4
{
T 44450 47000 5 10 1 1 0 0 1
netname=fan0
}
N 52625 46075 52325 46075 4
{
T 51550 46075 5 10 1 1 0 0 1
netname=E0M_2B
}
N 52625 45825 52325 45825 4
{
T 51550 45825 5 10 1 1 0 0 1
netname=E0M_2A
}
N 52625 45575 52325 45575 4
{
T 51550 45575 5 10 1 1 0 0 1
netname=E0M_1A
}
N 52625 45325 52325 45325 4
{
T 51550 45325 5 10 1 1 0 0 1
netname=E0M_1B
}
N 52625 45075 52325 45075 4
{
T 52050 45075 5 10 1 1 0 0 1
netname=gnd
}
N 52625 44825 52325 44825 4
{
T 51550 44825 5 10 1 1 0 0 1
netname=E1M_2B
}
N 52625 44575 52325 44575 4
{
T 51550 44575 5 10 1 1 0 0 1
netname=E1M_2A
}
N 52625 44325 52325 44325 4
{
T 51550 44325 5 10 1 1 0 0 1
netname=E1M_1A
}
N 52625 44075 52325 44075 4
{
T 51550 44075 5 10 1 1 0 0 1
netname=E1M_1B
}
N 52625 43825 52325 43825 4
{
T 52075 43825 5 10 1 1 0 0 1
netname=gnd
}
N 55425 46075 55125 46075 4
{
T 55325 46075 5 10 1 1 0 0 1
netname=XM_1B
}
N 55425 45825 55125 45825 4
{
T 55350 45825 5 10 1 1 0 0 1
netname=gnd
}
N 55425 45575 55125 45575 4
{
T 55350 45575 5 10 1 1 0 0 1
netname=x_endstop
}
N 55425 45325 55125 45325 4
{
T 55350 45325 5 10 1 1 0 0 1
netname=fan1
}
N 55425 45075 55125 45075 4
{
T 55325 45075 5 10 1 1 0 0 1
netname=therm1
}
N 55425 44825 55125 44825 4
{
T 55325 44825 5 10 1 1 0 0 1
netname=fan1_1
}
N 55425 44575 55125 44575 4
{
T 55325 44575 5 10 1 1 0 0 1
netname=fan0_1
}
N 55425 44325 55125 44325 4
{
T 55300 44325 5 10 1 1 0 0 1
netname=gnd
}
N 55425 44075 55125 44075 4
{
T 55300 44075 5 10 1 1 0 0 1
netname=fan0
}
N 55425 43825 55125 43825 4
{
T 55300 43825 5 10 1 1 0 0 1
netname=therm0
}
N 52625 43575 52325 43575 4
{
T 51600 43575 5 10 1 1 0 0 1
netname=XM_2B
}
N 52625 43325 52325 43325 4
{
T 51575 43325 5 10 1 1 0 0 1
netname=XM_2A
}
N 52625 43075 52325 43075 4
{
T 51775 43075 5 10 1 1 0 0 1
netname=XM_1A
}
N 55425 43575 55125 43575 4
{
T 55325 43575 5 10 1 1 0 0 1
netname=aux0-a
}
N 55425 43325 55125 43325 4
{
T 55325 43325 5 10 1 1 0 0 1
netname=aux0-b
}
N 55425 43075 55125 43075 4
{
T 55325 43075 5 10 1 1 0 0 1
netname=5v_vcc
}
C 52525 42725 1 0 0 TAM_26pin_ribbon_conn.sym
{
T 53550 46550 5 10 1 1 0 6 1
refdes=CONN4
T 52925 46625 5 10 0 0 0 0 1
device=TAM_26pin_ribbon_conn
T 52950 42300 5 8 1 1 0 0 1
footprint=EHF-113-01-XX-D
T 52975 42500 5 14 1 1 0 0 1
value=26 Way Ribbon
}
C 41550 46650 1 0 0 TAM_20pin_ribbon_conn.sym
{
T 42600 49725 5 10 0 1 0 6 1
refdes=CONN5
T 41950 49800 5 10 0 1 0 0 1
device=TAM_20pin_ribbon_conn
T 42050 46125 5 8 1 1 0 0 1
footprint=EHF-110-01-XX-D
T 42050 46350 5 14 1 1 0 0 1
value=20 way Ribbon
}
C 47975 44625 1 0 1 TAM_pwrline_6pin.sym
{
T 45975 45825 5 10 0 1 0 0 1
refdes=CONN6
T 47575 46025 5 10 0 0 0 6 1
device=TAM_pwrline_6pin
T 47725 44325 5 8 1 1 0 6 1
footprint=molex_microfit_436500615
T 47475 44475 5 14 1 1 0 6 1
value=6 Pin Header
}
C 48025 44625 1 0 0 TAM_pwrline_6pin.sym
{
T 50025 45825 5 10 0 1 0 6 1
refdes=CONN7
T 48425 46025 5 10 0 0 0 0 1
device=TAM_pwrline_6pin
T 48425 44100 5 8 1 1 0 0 1
footprint=molex_microfit_436500615
T 48575 44300 5 14 1 1 0 0 1
value=6 Pin Header
}
T 49600 41625 9 24 1 0 0 0 1
CONNECTORS IN FROM  ETRAY
N 48125 45475 47875 45475 4
N 48125 45225 47875 45225 4
N 47875 44975 48125 44975 4
N 50325 45475 50425 45475 4
N 50425 45475 50425 46425 4
N 50425 46425 45575 46425 4
N 45575 46425 45575 45475 4
N 50325 45225 50550 45225 4
N 50550 45225 50575 46625 4
N 50575 46625 45450 46650 4
N 45450 46650 45450 45225 4
N 45675 45225 45450 45225 4
N 45325 44975 45675 44975 4
N 45325 44975 45350 46850 4
N 50325 44975 50675 44975 4
N 50675 44975 50725 46850 4
N 50725 46850 45350 46850 4
N 45575 45475 45675 45475 4
T 54850 49225 9 8 1 0 0 0 1
{*NP}
T 54850 48825 9 8 1 0 0 0 1
{*NP}
T 54850 48425 9 8 1 0 0 0 1
{*NP}
T 54875 48000 9 8 1 0 0 0 1
{*NP}
T 50475 50325 9 10 1 0 0 0 1
Gray
T 50475 49900 9 10 1 0 0 0 1
Black
T 41075 42875 9 10 1 0 0 0 1
Black
T 41075 42475 9 10 1 0 0 0 1
Green
T 41075 42025 9 10 1 0 0 0 1
Red
T 41075 41625 9 10 1 0 0 0 1
Blue
B 40150 43775 7800 6100 3 0 0 0 -1 -1 0 -1 -1 -1 -1 -1
B 48050 42075 8900 4975 3 0 0 0 -1 -1 0 -1 -1 -1 -1 -1
T 44025 40550 9 10 1 0 0 0 4
{*NP} = Not Populated: 
These connections are not populated
on the stock single extruder model
Series One 2014
T 44000 41600 9 10 1 0 0 0 4
Wiring colors are suggested and deployed by
Type A Machines, always check pin number
and signal for correct connections when
deploying alterations or upgrades
B 43900 40300 4000 2900 3 0 0 0 -1 -1 0 -1 -1 -1 -1 -1
T 44100 42800 9 22 1 0 0 0 1
NOTES
L 43900 42700 47900 42700 3 0 0 0 -1 -1
C 49450 39850 1 0 0 cvstitleblock-1.sym
{
T 50050 40250 5 10 1 1 0 0 1
date=$Date$
T 53950 40250 5 10 1 1 0 0 1
rev=$Revision$
T 55450 39950 5 10 1 1 0 0 1
auth=$Author$
T 50050 40550 5 10 1 1 0 0 1
fname=$Source$
T 52300 40950 5 14 1 1 0 4 1
title=2014 Series One Gantry Breakout Board
}
B 39850 39850 17200 11450 1 0 1 0 -1 -1 0 -1 -1 -1 -1 -1
