v 20111231 2
P 100 2600 400 2600 1 0 0
{
T 300 2650 5 8 1 1 0 6 1
pinnumber=1
T 300 2550 5 8 0 1 0 8 1
pinseq=1
T 450 2600 9 8 1 1 0 0 1
pinlabel=E0M3_black
T 450 2600 5 8 0 1 0 2 1
pintype=pwr
}
P 100 2350 400 2350 1 0 0
{
T 300 2400 5 8 1 1 0 6 1
pinnumber=2
T 300 2300 5 8 0 1 0 8 1
pinseq=2
T 450 2350 9 8 1 1 0 0 1
pinlabel=E0M4_green
T 450 2350 5 8 0 1 0 2 1
pintype=pwr
}
P 100 2100 400 2100 1 0 0
{
T 300 2150 5 8 1 1 0 6 1
pinnumber=3
T 300 2050 5 8 0 1 0 8 1
pinseq=3
T 450 2100 9 8 1 1 0 0 1
pinlabel=E0M1_red
T 450 2100 5 8 0 1 0 2 1
pintype=pwr
}
P 100 1850 400 1850 1 0 0
{
T 300 1900 5 8 1 1 0 6 1
pinnumber=4
T 300 1800 5 8 0 1 0 8 1
pinseq=4
T 450 1850 9 8 1 1 0 0 1
pinlabel=E0M2_blue
T 450 1850 5 8 0 1 0 2 1
pintype=pwr
}
P 100 1600 400 1600 1 0 0
{
T 300 1650 5 8 1 1 0 6 1
pinnumber=5
T 300 1550 5 8 0 1 0 8 1
pinseq=5
T 450 1600 9 8 1 1 0 0 1
pinlabel=gnd
T 450 1600 5 8 0 1 0 2 1
pintype=pwr
}
P 100 1350 400 1350 1 0 0
{
T 300 1400 5 8 1 1 0 6 1
pinnumber=6
T 300 1300 5 8 0 1 0 8 1
pinseq=6
T 450 1350 9 8 1 1 0 0 1
pinlabel=E1M3_black
T 450 1350 5 8 0 1 0 2 1
pintype=pas
}
P 100 1100 400 1100 1 0 0
{
T 300 1150 5 8 1 1 0 6 1
pinnumber=7
T 300 1050 5 8 0 1 0 8 1
pinseq=7
T 450 1100 9 8 1 1 0 0 1
pinlabel=E1M4_green
T 450 1100 5 8 0 1 0 2 1
pintype=pwr
}
P 100 850 400 850 1 0 0
{
T 300 900 5 8 1 1 0 6 1
pinnumber=8
T 300 800 5 8 0 1 0 8 1
pinseq=8
T 450 850 9 8 1 1 0 0 1
pinlabel=E1M1_red
T 450 850 5 8 0 1 0 2 1
pintype=pwr
}
P 100 600 400 600 1 0 0
{
T 300 650 5 8 1 1 0 6 1
pinnumber=9
T 300 550 5 8 0 1 0 8 1
pinseq=9
T 450 600 9 8 1 1 0 0 1
pinlabel=E1M2_blue
T 450 600 5 8 0 1 0 2 1
pintype=pwr
}
P 100 350 400 350 1 0 0
{
T 300 400 5 8 1 1 0 6 1
pinnumber=10
T 300 300 5 8 0 1 0 8 1
pinseq=10
T 450 350 9 8 1 1 0 0 1
pinlabel=gnd
T 450 350 5 8 0 1 0 2 1
pintype=pwr
}
P 2600 2600 2300 2600 1 0 0
{
T 2400 2650 5 8 1 1 0 0 1
pinnumber=11
T 2400 2550 5 8 0 1 0 2 1
pinseq=11
T 2250 2600 9 8 1 1 0 6 1
pinlabel=fan1
T 2250 2600 5 8 0 1 0 8 1
pintype=pwr
}
P 2600 2350 2300 2350 1 0 0
{
T 2400 2400 5 8 1 1 0 0 1
pinnumber=12
T 2400 2300 5 8 0 1 0 2 1
pinseq=12
T 2250 2350 9 8 1 1 0 6 1
pinlabel=therm1
T 2250 2350 5 8 0 1 0 8 1
pintype=in
}
P 2600 2100 2300 2100 1 0 0
{
T 2400 2150 5 8 1 1 0 0 1
pinnumber=13
T 2400 2050 5 8 0 1 0 2 1
pinseq=13
T 2250 2100 9 8 1 1 0 6 1
pinlabel=fan0
T 2250 2100 5 8 0 1 0 8 1
pintype=pwr
}
P 2600 1850 2300 1850 1 0 0
{
T 2400 1900 5 8 1 1 0 0 1
pinnumber=14
T 2400 1800 5 8 0 1 0 2 1
pinseq=14
T 2250 1850 9 8 1 1 0 6 1
pinlabel=therm0
T 2250 1850 5 8 0 1 0 8 1
pintype=in
}
P 2600 1600 2300 1600 1 0 0
{
T 2400 1650 5 8 1 1 0 0 1
pinnumber=15
T 2400 1550 5 8 0 1 0 2 1
pinseq=15
T 2250 1600 9 8 1 1 0 6 1
pinlabel=fan1_1
T 2250 1600 5 8 0 1 0 8 1
pintype=io
}
P 2600 1350 2300 1350 1 0 0
{
T 2400 1400 5 8 1 1 0 0 1
pinnumber=16
T 2400 1300 5 8 0 1 0 2 1
pinseq=16
T 2250 1350 9 8 1 1 0 6 1
pinlabel=fan0_1
T 2250 1350 5 8 0 1 0 8 1
pintype=io
}
P 2600 1100 2300 1100 1 0 0
{
T 2400 1150 5 8 1 1 0 0 1
pinnumber=17
T 2400 1050 5 8 0 1 0 2 1
pinseq=17
T 2250 1100 9 8 1 1 0 6 1
pinlabel=gnd
T 2250 1100 5 8 0 1 0 8 1
pintype=pwr
}
P 2600 850 2300 850 1 0 0
{
T 2400 900 5 8 1 1 0 0 1
pinnumber=18
T 2400 800 5 8 0 1 0 2 1
pinseq=18
T 2250 850 9 8 1 1 0 6 1
pinlabel=aux0-a
T 2250 850 5 8 0 1 0 8 1
pintype=io
}
P 2600 600 2300 600 1 0 0
{
T 2400 650 5 8 1 1 0 0 1
pinnumber=19
T 2400 550 5 8 0 1 0 2 1
pinseq=19
T 2250 600 9 8 1 1 0 6 1
pinlabel=aux0-b
T 2250 600 5 8 0 1 0 8 1
pintype=io
}
P 2600 350 2300 350 1 0 0
{
T 2400 400 5 8 1 1 0 0 1
pinnumber=20
T 2400 300 5 8 0 1 0 2 1
pinseq=20
T 2250 350 9 8 1 1 0 6 1
pinlabel=5v_vcc
T 2250 350 5 8 0 1 0 8 1
pintype=pwr
}
B 400 100 1900 2750 3 0 0 0 -1 -1 0 -1 -1 -1 -1 -1
T 1000 3175 8 10 1 1 0 6 1
refdes=CONN?
T 400 2900 9 10 1 0 0 0 1
TAM_20pin_ribbon_conn
T 400 3150 5 10 0 0 0 0 1
device=TAM_20pin_ribbon_conn
T 400 3350 5 10 0 0 0 0 1
documentation=dev.typ.ma
T 400 3550 5 10 0 0 0 0 1
description=breakout device for gantry ribbon connection
T 400 3750 5 10 0 0 0 0 1
numslots=0
